{
    "nextcloud-calendar": {
        "name": "calendar",
        "sha256": "0dz71cqpc6v8rrdnd9h2174ny41wbrk2g5kzhyazjv5awbr4y17y",
        "type": "tarball",
        "url": "https://github.com/nextcloud/calendar/releases/download/v2.0.2/calendar.tar.gz",
        "url_template": "https://github.com/nextcloud/<name>/releases/download/v<version>/<name>.tar.gz",
        "version": "2.0.2"
    },
    "nextcloud-contacts": {
        "name": "contacts",
        "sha256": "147fc9jigqzzsj4lq3xiqsf9ka8vw9p2naz3vl0wgas1984932wg",
        "type": "tarball",
        "url": "https://github.com/nextcloud/contacts/releases/download/v3.2.0/contacts.tar.gz",
        "url_template": "https://github.com/nextcloud/<name>/releases/download/v<version>/<name>.tar.gz",
        "version": "3.2.0"
    },
    "nixpkgs": {
        "branch": "nixos-20.03",
        "description": "A read-only mirror of NixOS/nixpkgs tracking the released channels. Send issues and PRs to",
        "homepage": "https://github.com/NixOS/nixpkgs",
        "owner": "NixOS",
        "repo": "nixpkgs-channels",
        "rev": "95b9c99f6d091273572ff1ec62b97b6ad3f68bdf",
        "sha256": "1qcwr9binkwfayix88aljwssxi5djkwscx0rnwlk1yp9q60rgp3d",
        "type": "tarball",
        "url": "https://github.com/NixOS/nixpkgs-channels/archive/95b9c99f6d091273572ff1ec62b97b6ad3f68bdf.tar.gz",
        "url_template": "https://github.com/<owner>/<repo>/archive/<rev>.tar.gz"
    }
}
